{
    "defaultSeverity": "error",
    "extends": [
        "tslint:recommended"
    ],
    "jsRules": {},
    "rules": {
        "object-literal-sort-keys": false,
        "max-line-length":false,
        "only-arrow-functions": false,
        "interface-name":false,
        "arrow-parens":false
    },
    "rulesDirectory": []
}